0 0 0 0.53125 0.5 0.5
0 0 1 0.234375 0.875 0.9375
0 0 2 0.4375 0.75 0.15625
0 1 0 0.0390625 0.875 0.65625
0 1 1 0.171875 0.12109375 0.28125
0 1 2 0.9375 0.9375 0.078125
0 2 0 0.203125 0.75 0.0087890625
0 2 1 0.6875 0.78125 0.6875
0 2 2 0.25 0.006103515625 0.78125
0 3 0 0.140625 0.453125 0.029296875
0 3 1 0.71875 0.78125 0.10546875
0 3 2 0.25 0.4375 0.4375
1 0 0 0.4375 0.046875 0.1796875
1 0 1 0.28125 0.28125 0.46875
1 0 2 0.390625 0.2265625 0.71875
1 1 0 0.96875 0.96875 0.25
1 1 1 0.65625 0.40625 0.71875
1 1 2 0.0625 0.28125 0.65625
1 2 0 0.453125 0.421875 0.875
1 2 1 0.875 0.6875 0.453125
1 2 2 0.9375 0.65625 0.6875
1 3 0 0.5 0.59375 0.71875
1 3 1 0.08203125 0.1484375 0.65625
1 3 2 0.8125 0.71875 0.296875
2 0 0 0.328125 0.84375 0.53125
2 0 1 0.08984375 0.0546875 0.5625
2 0 2 0.59375 0.390625 0.40625
2 1 0 0.90625 0.71875 0.53125
2 1 1 0.125 0.71875 0.0703125
2 1 2 0.90625 0.9375 0.5625
2 2 0 0.0703125 0.59375 0.359375
2 2 1 0.25 0.90625 0.041015625
2 2 2 0.359375 0.1171875 0.4375
2 3 0 0.53125 0.3125 0.12109375
2 3 1 0.65625 0.71875 0.5
2 3 2 0.53125 0.171875 0.5
3 0 0 0.1640625 0.041015625 0.90625
3 0 1 0.875 0.75 0.3125
3 0 2 0.2265625 0.875 0.34375
3 1 0 0.34375 0.59375 0.28125
3 1 1 0.005859375 0.359375 0.2109375
3 1 2 0.5 0.2109375 0.359375
3 2 0 0.234375 0.34375 0.8125
3 2 1 0.96875 0.3125 0.421875
3 2 2 0.453125 0.875 0.05078125
3 3 0 0.6875 0.390625 0.65625
3 3 1 0.453125 0.017578125 0.234375
3 3 2 0.453125 0.5 0.484375
