0 0 0 0.34375 0.40625 0.84375
0 0 1 0.265625 0.8125 0.625
0 1 0 0.78125 0.4375 0.40625
0 1 1 0.28125 0.5 0.04296875
0 2 0 0.59375 0.078125 0.78125
0 2 1 0.75 0.90625 0.53125
0 3 0 0.0625 0.21875 0.78125
0 3 1 0.09375 0.5 0.21875
1 0 0 0.390625 0.296875 0.9375
1 0 1 0.0004425048828125 0.8125 0.96875
1 1 0 0.84375 0.2265625 0.90625
1 1 1 0.4375 0.1484375 0.46875
1 2 0 0.3125 0.5625 0.84375
1 2 1 0.34375 0.59375 0.453125
1 3 0 0.21875 0.78125 0.5625
1 3 1 0.65625 0.6875 0.75
2 0 0 0.65625 0.9375 0.84375
2 0 1 0.140625 0.453125 0.5
2 1 0 0.15625 0.375 0.40625
2 1 1 0.5 0.1640625 0.84375
2 2 0 0.9375 0.90625 0.5
2 2 1 0.1484375 0.6875 0.048828125
2 3 0 0.6875 0.375 0.75
2 3 1 0.90625 0.0078125 0.78125
3 0 0 0.84375 0.28125 0.8125
3 0 1 0.203125 0.1953125 0.90625
3 1 0 0.59375 0.056640625 0.390625
3 1 1 0.625 0.96875 0.2109375
3 2 0 0.78125 0.296875 0.05078125
3 2 1 0.296875 0.90625 0.9375
3 3 0 0.08984375 0.71875 0.5625
3 3 1 0.140625 0.037109375 0.59375
