0 0 0 0.71875 0.044921875 0.34375
0 0 1 0.4375 0.359375 0.84375
0 0 2 0.4375 0.08984375 0.140625
0 0 3 0.71875 0.71875 0.2421875
0 1 0 0.71875 0.484375 0.484375
0 1 1 0.140625 0.84375 0.6875
0 1 2 0.2265625 0.12109375 0.71875
0 1 3 0.75 0.125 0.1875
0 2 0 0.041015625 0.59375 0.3125
0 2 1 0.8125 0.46875 0.5
0 2 2 0.90625 0.04296875 0.171875
0 2 3 0.90625 0.28125 0.5
0 3 0 0.328125 0.625 0.453125
0 3 1 0.59375 0.96875 0.5
0 3 2 0.71875 0.2109375 0.625
0 3 3 0.71875 0.46875 0.5625
1 0 0 0.65625 0.140625 0.8125
1 0 1 0.5625 0.9375 0.0625
1 0 2 0.78125 0.453125 0.71875
1 0 3 0.53125 0.59375 0.59375
1 1 0 0.6875 0.84375 0.9375
1 1 1 0.65625 0.59375 0.9375
1 1 2 0.048828125 0.8125 0.6875
1 1 3 0.8125 0.5625 0.5625
1 2 0 0.59375 0.5 0.12109375
1 2 1 0.1484375 0.6875 0.875
1 2 2 0.5625 0.875 0.390625
1 2 3 0.9375 0.265625 0.34375
1 3 0 0.78125 0.53125 0.40625
1 3 1 0.4375 0.84375 0.078125
1 3 2 0.1484375 0.12109375 0.8125
1 3 3 0.359375 0.25 0.453125
2 0 0 0.5 0.1015625 0.96875
2 0 1 0.46875 0.28125 0.328125
2 0 2 0.203125 0.90625 0.6875
2 0 3 0.90625 0.359375 0.5625
2 1 0 0.1796875 0.9375 0.00927734375
2 1 1 0.0625 0.6875 0.09765625
2 1 2 0.71875 0.328125 0.78125
2 1 3 0.044921875 0.296875 0.25
2 2 0 0.125 0.625 0.08984375
2 2 1 0.5 0.90625 0.5
2 2 2 0.84375 0.84375 0.328125
2 2 3 0.625 0.78125 0.875
2 3 0 0.01416015625 0.875 0.3125
2 3 1 0.59375 0.015625 0.0224609375
2 3 2 0.6875 0.53125 0.203125
2 3 3 0.34375 0.8125 0.453125
3 0 0 0.46875 0.265625 0.71875
3 0 1 0.03515625 0.40625 0.34375
3 0 2 0.8125 0.09765625 0.1953125
3 0 3 0.0625 0.78125 0.5625
3 1 0 0.34375 0.78125 0.875
3 1 1 0.625 0.84375 0.53125
3 1 2 0.3125 0.08203125 0.8125
3 1 3 0.90625 0.53125 0.78125
3 2 0 0.375 0.90625 0.40625
3 2 1 0.96875 0.40625 0.96875
3 2 2 0.9375 0.140625 0.6875
3 2 3 0.109375 0.2265625 0.08203125
3 3 0 0.8125 0.6875 0.5625
3 3 1 0.5625 0.84375 0.1328125
3 3 2 0.5 0.9375 0.65625
3 3 3 0.6875 0.21875 0.328125
