0 0 0 0.1015625 0.09375 0.625
0 0 1 0.59375 0.2421875 0.84375
0 0 2 0.875 0.53125 0.6875
0 0 3 0.59375 0.1796875 0.875
0 1 0 0.234375 0.34375 0.75
0 1 1 0.1796875 0.0859375 0.5625
0 1 2 0.8125 0.421875 0.203125
0 1 3 0.265625 0.6875 0.4375
0 2 0 0.9375 0.59375 0.060546875
0 2 1 0.359375 0.375 0.53125
0 2 2 0.1796875 0.421875 0.71875
0 2 3 0.21875 0.96875 0.359375
0 3 0 0.1796875 0.90625 0.96875
0 3 1 0.375 0.84375 0.59375
0 3 2 0.28125 0.90625 0.5625
0 3 3 0.9375 0.06640625 0.6875
1 0 0 0.84375 0.017578125 0.71875
1 0 1 0.04296875 0.65625 0.53125
1 0 2 0.90625 0.05859375 0.12109375
1 0 3 0.53125 0.90625 0.25
1 1 0 0.296875 0.390625 0.90625
1 1 1 0.3125 0.40625 0.09765625
1 1 2 0.453125 0.84375 0.15625
1 1 3 0.09375 0.21875 0.01318359375
1 2 0 0.0703125 0.90625 0.453125
1 2 1 0.875 0.59375 0.65625
1 2 2 0.375 0.5625 0.265625
1 2 3 0.1640625 0.2421875 0.84375
1 3 0 0.5 0.6875 0.90625
1 3 1 0.0185546875 0.28125 0.75
1 3 2 0.6875 0.5 0.8125
1 3 3 0.75 0.1171875 0.75
2 0 0 0.5625 0.28125 0.84375
2 0 1 0.96875 0.07421875 0.9375
2 0 2 0.84375 0.90625 0.12109375
2 0 3 0.048828125 0.6875 0.1328125
2 1 0 0.875 0.3125 0.25
2 1 1 0.1015625 0.78125 0.328125
2 1 2 0.25 0.71875 0.9375
2 1 3 0.1875 0.09375 0.625
2 2 0 0.265625 0.07421875 0.296875
2 2 1 0.875 0.9375 0.046875
2 2 2 0.296875 0.25 0.2421875
2 2 3 0.375 0.4375 0.0263671875
2 3 0 0.8125 0.5625 0.453125
2 3 1 0.96875 0.6875 0.75
2 3 2 0.11328125 0.03125 0.09765625
2 3 3 0.0078125 0.78125 0.08203125
3 0 0 0.5625 0.265625 0.2421875
3 0 1 0.0234375 0.25 0.8125
3 0 2 0.53125 0.484375 0.75
3 0 3 0.1953125 0.28125 0.625
3 1 0 0.6875 0.625 0.078125
3 1 1 0.390625 0.2265625 0.0234375
3 1 2 0.4375 0.421875 0.96875
3 1 3 0.5 0.296875 0.65625
3 2 0 0.421875 0.421875 0.875
3 2 1 0.84375 0.8125 0.12109375
3 2 2 0.25 0.84375 0.75
3 2 3 0.296875 0.125 0.6875
3 3 0 0.28125 0.65625 0.375
3 3 1 0.5625 0.1015625 0.71875
3 3 2 0.5625 0.625 0.044921875
3 3 3 0.46875 0.71875 0.625
